…
    ## [1] 1

# dplyr

Now that you have seen how to work with data using base R functions, it
is time to turn your attention to data wrangling with the `dplyr`
package. Let’s take a quick peak at the measles data frame.

``` r
measles
```

    ## # A tibble: 66,113 x 16
    ##    index state year  name  type  city  county district enroll   mmr overall
    ##    <dbl> <chr> <chr> <chr> <chr> <chr> <chr>  <lgl>     <dbl> <dbl>   <dbl>
    ##  1     1 Ariz… 2018… A J … Publ… Noga… Santa… NA           51   100      -1
    ##  2     2 Ariz… 2018… Acad… Char… Tucs… Pima   NA           22   100      -1
    ##  3     3 Ariz… 2018… Acad… Char… Tucs… Pima   NA           85   100      -1
    ##  4     4 Ariz… 2018… Acad… Char… Phoe… Maric… NA           60   100      -1
    ##  5     5 Ariz… 2018… Accl… Char… Phoe… Maric… NA           43   100      -1
    ##  6     6 Ariz… 2018… Alfr… Publ… Phoe… Maric… NA           36   100      -1
    ##  7     7 Ariz… 2018… All … Char… Phoe… Maric… NA           24   100      -1
    ##  8     8 Ariz… 2018… Amer… Char… Yuma  Yuma   NA           22   100      -1
    ##  9     9 Ariz… 2018… Ariz… Priv… Phoe… Maric… NA           26   100      -1
    ## 10    10 Ariz… 2018… Ariz… Publ… San … Yuma   NA           78   100      -1
    ## # … with 66,103 more rows, and 5 more variables: xrel <lgl>, xmed <dbl>,
    ## #   xper <dbl>, lat <dbl>, lng <dbl>
…
``` r
unique(CAMINYUT$state)
```

    ## [1] "California" "Michigan"   "New York"   "Utah"

Success\! A cleaner way of filtering the data may have looked something
like this:

``` r
filter(measles, state %in% c("California", "Michigan", "New York", "Utah"))
```

    ## # A tibble: 23,328 x 16
    ##    index state year  name  type  city  county district enroll   mmr overall
    ##    <dbl> <chr> <chr> <chr> <chr> <chr> <chr>  <lgl>     <dbl> <dbl>   <dbl>
    ##  1     1 Cali… 2018… Abby… Publ… Teme… River… NA          137    99      96
    ##  2     2 Cali… 2018… Abra… Publ… Sant… Orange NA          135    99      99
    ##  3     2 Cali… 2018… Abra… Publ… Sant… Orange NA          135    99      99
    ##  4     2 Cali… 2018… Abra… Publ… Sant… Orange NA          135    99      99
    ##  5     2 Cali… 2018… Abra… Publ… Sant… Orange NA          135    99      99
    ##  6     2 Cali… 2018… Abra… Publ… Sant… Orange NA          135    99      99
    ##  7     2 Cali… 2018… Abra… Publ… Sant… Orange NA          135    99      99
    ##  8     2 Cali… 2018… Abra… Publ… Sant… Orange NA          135    99      99
    ##  9     2 Cali… 2018… Abra… Publ… Sant… Orange NA          135    99      99
    ## 10     3 Cali… 2018… Achi… Publ… Oakl… Alame… NA          116    99      99
    ## # … with 23,318 more rows, and 5 more variables: xrel <lgl>, xmed <dbl>,
    ## #   xper <dbl>, lat <dbl>, lng <dbl>

A quick glance at the dimensions of CAMINYUT and the console output
indicates that the two resulting data frames share the same dimensions.
If you are interested in arranging the data by enrollment, you can use
the `arrange()` function:

``` r
arrange(CAMINYUT, enroll)
```

    ## # A tibble: 23,328 x 16
    ##    index state year  name  type  city  county district enroll   mmr overall
    ##    <dbl> <chr> <chr> <chr> <chr> <chr> <chr>  <lgl>     <dbl> <dbl>   <dbl>
    ##  1  6550 Cali… 2018… All … Priv… San … Marin  NA            1    -1      -1
    ##  2  6557 Cali… 2018… Almo… Priv… Oran… Sacra… NA            1    -1      -1
    ##  3  6564 Cali… 2018… Amaa… Priv… Anah… Orange NA            1    -1      -1
    ##  4  6567 Cali… 2018… Anit… Priv… Duar… Los A… NA            1    -1      -1
    ##  5  6610 Cali… 2018… Beac… Priv… Mont… Shasta NA            1    -1      -1
    ##  6  6617 Cali… 2018… Bere… Priv… Ange… San B… NA            1    -1      -1
    ##  7  6634 Cali… 2018… Bibl… Priv… Mary… Yuba   NA            1    -1      -1
    ##  8  6643 Cali… 2018… Biol… Priv… La M… Los A… NA            1    -1      -1
    ##  9  6645 Cali… 2018… Blai… Priv… El D… El Do… NA            1    -1      -1
    ## 10  6667 Cali… 2018… Brid… Priv… Perr… River… NA            1    -1      -1
    ## # … with 23,318 more rows, and 5 more variables: xrel <lgl>, xmed <dbl>,
    ## #   xper <dbl>, lat <dbl>, lng <dbl>

``` r
arrange(CAMINYUT, desc(enroll))
```

    ## # A tibble: 23,328 x 16
    ##    index state year  name  type  city  county district enroll   mmr overall
    ##    <dbl> <chr> <chr> <chr> <chr> <chr> <chr>  <lgl>     <dbl> <dbl>   <dbl>
    ##  1   482 Utah  2017… Trav… Publ… Lehi  Utah   NA         1246  93.5      -1
    ##  2   535 Utah  2017… Vine… Publ… Orem  Utah   NA         1202  91.6      -1
    ##  3   432 Utah  2017… Bluf… Publ… Bluf… Salt … NA         1179  94.7      -1
    ##  4   468 Utah  2017… Fox … Publ… Lehi  Utah   NA         1115  93.8      -1
    ##  5   281 Utah  2017… Foot… Publ… Rive… Salt … NA         1056  96.6      -1
    ##  6   520 Utah  2017… Eagl… Publ… Lehi  Utah   NA         1056  92.2      -1
    ##  7   326 Utah  2017… Sout… Publ… Sout… Salt … NA         1046  96.0      -1
    ##  8   117 Utah  2017… Sand… Publ… Layt… Davis  NA         1042  98.3      -1
    ##  9   499 Utah  2017… Free… Publ… High… Utah   NA         1032  92.9      -1
    ## 10   499 Utah  2017… Free… Publ… High… Utah   NA         1032  92.9      -1
    ## # … with 23,318 more rows, and 5 more variables: xrel <lgl>, xmed <dbl>,
    ## #   xper <dbl>, lat <dbl>, lng <dbl>

For most analysis, the ordering of your data is unlikely to make a
difference, but it can be helpful if you wanted to take a quick glance
at the data.

If you decide that you no longer need certain columns, you can remove
them with `select()`. Let’s remove lat and lng. You could explicitly
name all other columns.

``` r
select(CAMINYUT, "index", "state", "year", "name", "type", "city", "county", "district", "enroll", "mmr", "overall", "xrel", "xmed", "xper")
```

    ## # A tibble: 23,328 x 14
    ##    index state year  name  type  city  county district enroll   mmr overall
    ##    <dbl> <chr> <chr> <chr> <chr> <chr> <chr>  <lgl>     <dbl> <dbl>   <dbl>
    ##  1     1 Cali… 2018… Abby… Publ… Teme… River… NA          137    99      96
    ##  2     2 Cali… 2018… Abra… Publ… Sant… Orange NA          135    99      99
    ##  3     2 Cali… 2018… Abra… Publ… Sant… Orange NA          135    99      99
    ##  4     2 Cali… 2018… Abra… Publ… Sant… Orange NA          135    99      99
    ##  5     2 Cali… 2018… Abra… Publ… Sant… Orange NA          135    99      99
    ##  6     2 Cali… 2018… Abra… Publ… Sant… Orange NA          135    99      99
    ##  7     2 Cali… 2018… Abra… Publ… Sant… Orange NA          135    99      99
    ##  8     2 Cali… 2018… Abra… Publ… Sant… Orange NA          135    99      99
    ##  9     2 Cali… 2018… Abra… Publ… Sant… Orange NA          135    99      99
    ## 10     3 Cali… 2018… Achi… Publ… Oakl… Alame… NA          116    99      99
    ## # … with 23,318 more rows, and 3 more variables: xrel <lgl>, xmed <dbl>,
    ## #   xper <dbl>

Alternatively, you can take advantage of the fact that lat and lng are
the last two columns and keep all columns between index and xper
instead.

``` r
select(CAMINYUT, "index":"xper")
```

    ## # A tibble: 23,328 x 14
    ##    index state year  name  type  city  county district enroll   mmr overall
    ##    <dbl> <chr> <chr> <chr> <chr> <chr> <chr>  <lgl>     <dbl> <dbl>   <dbl>
    ##  1     1 Cali… 2018… Abby… Publ… Teme… River… NA          137    99      96
    ##  2     2 Cali… 2018… Abra… Publ… Sant… Orange NA          135    99      99
    ##  3     2 Cali… 2018… Abra… Publ… Sant… Orange NA          135    99      99
    ##  4     2 Cali… 2018… Abra… Publ… Sant… Orange NA          135    99      99
    ##  5     2 Cali… 2018… Abra… Publ… Sant… Orange NA          135    99      99
    ##  6     2 Cali… 2018… Abra… Publ… Sant… Orange NA          135    99      99
    ##  7     2 Cali… 2018… Abra… Publ… Sant… Orange NA          135    99      99
    ##  8     2 Cali… 2018… Abra… Publ… Sant… Orange NA          135    99      99
    ##  9     2 Cali… 2018… Abra… Publ… Sant… Orange NA          135    99      99
    ## 10     3 Cali… 2018… Achi… Publ… Oakl… Alame… NA          116    99      99
    ## # … with 23,318 more rows, and 3 more variables: xrel <lgl>, xmed <dbl>,
    ## #   xper <dbl>

Another method is to state the names of columns you no longer need, but
add a subtraction or a minus symbol before it.

``` r
select(CAMINYUT, -"lat", -"lng")
```

    ## # A tibble: 23,328 x 14
    ##    index state year  name  type  city  county district enroll   mmr overall
    ##    <dbl> <chr> <chr> <chr> <chr> <chr> <chr>  <lgl>     <dbl> <dbl>   <dbl>
    ##  1     1 Cali… 2018… Abby… Publ… Teme… River… NA          137    99      96
    ##  2     2 Cali… 2018… Abra… Publ… Sant… Orange NA          135    99      99
    ##  3     2 Cali… 2018… Abra… Publ… Sant… Orange NA          135    99      99
    ##  4     2 Cali… 2018… Abra… Publ… Sant… Orange NA          135    99      99
    ##  5     2 Cali… 2018… Abra… Publ… Sant… Orange NA          135    99      99
    ##  6     2 Cali… 2018… Abra… Publ… Sant… Orange NA          135    99      99
    ##  7     2 Cali… 2018… Abra… Publ… Sant… Orange NA          135    99      99
    ##  8     2 Cali… 2018… Abra… Publ… Sant… Orange NA          135    99      99
    ##  9     2 Cali… 2018… Abra… Publ… Sant… Orange NA          135    99      99
    ## 10     3 Cali… 2018… Achi… Publ… Oakl… Alame… NA          116    99      99
    ## # … with 23,318 more rows, and 3 more variables: xrel <lgl>, xmed <dbl>,
    ## #   xper <dbl>

What if you wanted to rearrange the columns. For example, how would you
move the mmr column immediately to the right of index? You could use
`select()`.

``` r
select(CAMINYUT, index, mmr, everything())
```

    ## # A tibble: 23,328 x 16
    ##    index   mmr state year  name  type  city  county district enroll overall
    ##    <dbl> <dbl> <chr> <chr> <chr> <chr> <chr> <chr>  <lgl>     <dbl>   <dbl>
    ##  1     1    99 Cali… 2018… Abby… Publ… Teme… River… NA          137      96
    ##  2     2    99 Cali… 2018… Abra… Publ… Sant… Orange NA          135      99
    ##  3     2    99 Cali… 2018… Abra… Publ… Sant… Orange NA          135      99
    ##  4     2    99 Cali… 2018… Abra… Publ… Sant… Orange NA          135      99
    ##  5     2    99 Cali… 2018… Abra… Publ… Sant… Orange NA          135      99
    ##  6     2    99 Cali… 2018… Abra… Publ… Sant… Orange NA          135      99
    ##  7     2    99 Cali… 2018… Abra… Publ… Sant… Orange NA          135      99
    ##  8     2    99 Cali… 2018… Abra… Publ… Sant… Orange NA          135      99
    ##  9     2    99 Cali… 2018… Abra… Publ… Sant… Orange NA          135      99
    ## 10     3    99 Cali… 2018… Achi… Publ… Oakl… Alame… NA          116      99
    ## # … with 23,318 more rows, and 5 more variables: xrel <lgl>, xmed <dbl>,
    ## #   xper <dbl>, lat <dbl>, lng <dbl>

You could also use `relocate()` to move several columns at once.

``` r
relocate(CAMINYUT, enroll:overall, .after = index)
```

    ## # A tibble: 23,328 x 16
    ##    index enroll   mmr overall state year  name  type  city  county district
    ##    <dbl>  <dbl> <dbl>   <dbl> <chr> <chr> <chr> <chr> <chr> <chr>  <lgl>   
    ##  1     1    137    99      96 Cali… 2018… Abby… Publ… Teme… River… NA      
    ##  2     2    135    99      99 Cali… 2018… Abra… Publ… Sant… Orange NA      
    ##  3     2    135    99      99 Cali… 2018… Abra… Publ… Sant… Orange NA      
    ##  4     2    135    99      99 Cali… 2018… Abra… Publ… Sant… Orange NA      
    ##  5     2    135    99      99 Cali… 2018… Abra… Publ… Sant… Orange NA      
    ##  6     2    135    99      99 Cali… 2018… Abra… Publ… Sant… Orange NA      
    ##  7     2    135    99      99 Cali… 2018… Abra… Publ… Sant… Orange NA      
    ##  8     2    135    99      99 Cali… 2018… Abra… Publ… Sant… Orange NA      
    ##  9     2    135    99      99 Cali… 2018… Abra… Publ… Sant… Orange NA      
    ## 10     3    116    99      99 Cali… 2018… Achi… Publ… Oakl… Alame… NA      
    ## # … with 23,318 more rows, and 5 more variables: xrel <lgl>, xmed <dbl>,
    ## #   xper <dbl>, lat <dbl>, lng <dbl>

What if you wanted to rename columns? For example, you may want to
rename overall to overall\_rate to more clearly indicate that this
column reflects percent vaccination. You can do that using the
`rename()` function.

``` r
rename(CAMINYUT, overall_rate = overall)
```

    ## # A tibble: 23,328 x 16
    ##    index state year  name  type  city  county district enroll   mmr overall_rate
    ##    <dbl> <chr> <chr> <chr> <chr> <chr> <chr>  <lgl>     <dbl> <dbl>        <dbl>
    ##  1     1 Cali… 2018… Abby… Publ… Teme… River… NA          137    99           96
    ##  2     2 Cali… 2018… Abra… Publ… Sant… Orange NA          135    99           99
    ##  3     2 Cali… 2018… Abra… Publ… Sant… Orange NA          135    99           99
    ##  4     2 Cali… 2018… Abra… Publ… Sant… Orange NA          135    99           99
    ##  5     2 Cali… 2018… Abra… Publ… Sant… Orange NA          135    99           99
    ##  6     2 Cali… 2018… Abra… Publ… Sant… Orange NA          135    99           99
    ##  7     2 Cali… 2018… Abra… Publ… Sant… Orange NA          135    99           99
    ##  8     2 Cali… 2018… Abra… Publ… Sant… Orange NA          135    99           99
    ##  9     2 Cali… 2018… Abra… Publ… Sant… Orange NA          135    99           99
    ## 10     3 Cali… 2018… Achi… Publ… Oakl… Alame… NA          116    99           99
    ## # … with 23,318 more rows, and 5 more variables: xrel <lgl>, xmed <dbl>,
    ## #   xper <dbl>, lat <dbl>, lng <dbl>

What if you wanted to change the values of a column? Perhaps you want
decimal proportions rather than percentages. Give `mutate()` a try.

``` r
mutate(CAMINYUT, overall = overall/100)
```

    ## # A tibble: 23,328 x 16
    ##    index state year  name  type  city  county district enroll   mmr overall
    ##    <dbl> <chr> <chr> <chr> <chr> <chr> <chr>  <lgl>     <dbl> <dbl>   <dbl>
    ##  1     1 Cali… 2018… Abby… Publ… Teme… River… NA          137    99    0.96
    ##  2     2 Cali… 2018… Abra… Publ… Sant… Orange NA          135    99    0.99
    ##  3     2 Cali… 2018… Abra… Publ… Sant… Orange NA          135    99    0.99
    ##  4     2 Cali… 2018… Abra… Publ… Sant… Orange NA          135    99    0.99
    ##  5     2 Cali… 2018… Abra… Publ… Sant… Orange NA          135    99    0.99
    ##  6     2 Cali… 2018… Abra… Publ… Sant… Orange NA          135    99    0.99
    ##  7     2 Cali… 2018… Abra… Publ… Sant… Orange NA          135    99    0.99
    ##  8     2 Cali… 2018… Abra… Publ… Sant… Orange NA          135    99    0.99
    ##  9     2 Cali… 2018… Abra… Publ… Sant… Orange NA          135    99    0.99
    ## 10     3 Cali… 2018… Achi… Publ… Oakl… Alame… NA          116    99    0.99
    ## # … with 23,318 more rows, and 5 more variables: xrel <lgl>, xmed <dbl>,
    ## #   xper <dbl>, lat <dbl>, lng <dbl>

Perhaps you want to shorten Public and Private to Pub and Priv,
respectively, but keep all other labels under type the same:

``` r
mutate(CAMINYUT, type = ifelse(type == "Public", "Pub", 
                               ifelse(type == "Private", "Priv", type)))
```

    ## # A tibble: 23,328 x 16
    ##    index state year  name  type  city  county district enroll   mmr overall
    ##    <dbl> <chr> <chr> <chr> <chr> <chr> <chr>  <lgl>     <dbl> <dbl>   <dbl>
    ##  1     1 Cali… 2018… Abby… Pub   Teme… River… NA          137    99      96
    ##  2     2 Cali… 2018… Abra… Pub   Sant… Orange NA          135    99      99
    ##  3     2 Cali… 2018… Abra… Pub   Sant… Orange NA          135    99      99
    ##  4     2 Cali… 2018… Abra… Pub   Sant… Orange NA          135    99      99
    ##  5     2 Cali… 2018… Abra… Pub   Sant… Orange NA          135    99      99
    ##  6     2 Cali… 2018… Abra… Pub   Sant… Orange NA          135    99      99
    ##  7     2 Cali… 2018… Abra… Pub   Sant… Orange NA          135    99      99
    ##  8     2 Cali… 2018… Abra… Pub   Sant… Orange NA          135    99      99
    ##  9     2 Cali… 2018… Abra… Pub   Sant… Orange NA          135    99      99
    ## 10     3 Cali… 2018… Achi… Pub   Oakl… Alame… NA          116    99      99
    ## # … with 23,318 more rows, and 5 more variables: xrel <lgl>, xmed <dbl>,
    ## #   xper <dbl>, lat <dbl>, lng <dbl>

You can also use `mutate()` to create new columns.

``` r
CAMINYUT %>% 
  mutate(overall_rate = overall/100) %>% 
  select(index:overall, overall_rate)
```

    ## # A tibble: 23,328 x 12
    ##    index state year  name  type  city  county district enroll   mmr overall
    ##    <dbl> <chr> <chr> <chr> <chr> <chr> <chr>  <lgl>     <dbl> <dbl>   <dbl>
    ##  1     1 Cali… 2018… Abby… Publ… Teme… River… NA          137    99      96
    ##  2     2 Cali… 2018… Abra… Publ… Sant… Orange NA          135    99      99
    ##  3     2 Cali… 2018… Abra… Publ… Sant… Orange NA          135    99      99
    ##  4     2 Cali… 2018… Abra… Publ… Sant… Orange NA          135    99      99
    ##  5     2 Cali… 2018… Abra… Publ… Sant… Orange NA          135    99      99
    ##  6     2 Cali… 2018… Abra… Publ… Sant… Orange NA          135    99      99
    ##  7     2 Cali… 2018… Abra… Publ… Sant… Orange NA          135    99      99
    ##  8     2 Cali… 2018… Abra… Publ… Sant… Orange NA          135    99      99
    ##  9     2 Cali… 2018… Abra… Publ… Sant… Orange NA          135    99      99
    ## 10     3 Cali… 2018… Achi… Publ… Oakl… Alame… NA          116    99      99
    ## # … with 23,318 more rows, and 1 more variable: overall_rate <dbl>
…
    ## [1]  9.373546 10.183643  9.164371 11.595281 10.329508

`.` denotes the position to which you would pipe.

Why use the pipe? The pipe makes for easier to read code. You could have
done something like this instead, but it is harder to read at a glance:

``` r
select(mutate(CAMINYUT, overall_rate = overall/100), index:overall, overall_rate)
```

    ## # A tibble: 23,328 x 12
    ##    index state year  name  type  city  county district enroll   mmr overall
    ##    <dbl> <chr> <chr> <chr> <chr> <chr> <chr>  <lgl>     <dbl> <dbl>   <dbl>
    ##  1     1 Cali… 2018… Abby… Publ… Teme… River… NA          137    99      96
    ##  2     2 Cali… 2018… Abra… Publ… Sant… Orange NA          135    99      99
    ##  3     2 Cali… 2018… Abra… Publ… Sant… Orange NA          135    99      99
    ##  4     2 Cali… 2018… Abra… Publ… Sant… Orange NA          135    99      99
    ##  5     2 Cali… 2018… Abra… Publ… Sant… Orange NA          135    99      99
    ##  6     2 Cali… 2018… Abra… Publ… Sant… Orange NA          135    99      99
    ##  7     2 Cali… 2018… Abra… Publ… Sant… Orange NA          135    99      99
    ##  8     2 Cali… 2018… Abra… Publ… Sant… Orange NA          135    99      99
    ##  9     2 Cali… 2018… Abra… Publ… Sant… Orange NA          135    99      99
    ## 10     3 Cali… 2018… Achi… Publ… Oakl… Alame… NA          116    99      99
    ## # … with 23,318 more rows, and 1 more variable: overall_rate <dbl>
…
